gtsummary in quarto
…
age_bir
25 (21, 29)
22 (19, 27)
23 (20, 28)

    Unknown
3,652
3,091
6,743

1
n (%); Median (Q1, Q3)

# A tibble: 21 × 8
   variable     var_type    row_type var_label    label     stat_1 stat_2 stat_0
   <chr>        <chr>       <chr>    <chr>        <chr>     <chr>  <chr>  <chr> 
 1 race_eth_cat categorical label    race_eth_cat race_eth… <NA>   <NA>   <NA>  
 2 race_eth_cat categorical level    race_eth_cat Hispanic  1,000… 1,002… 2,002…
 3 race_eth_cat categorical level    race_eth_cat Black     1,613… 1,561… 3,174…
 4 race_eth_cat categorical level    race_eth_cat Non-Blac… 3,790… 3,720… 7,510…
 5 region_cat   categorical label    region_cat   region_c… <NA>   <NA>   <NA>  
 6 region_cat   categorical level    region_cat   Northeast 1,296… 1,254… 2,550…
 7 region_cat   categorical level    region_cat   North Ce… 1,488… 1,446… 2,934…
 8 region_cat   categorical level    region_cat   South     2,251… 2,317… 4,568…
 9 region_cat   categorical level    region_cat   West      1,253… 1,142… 2,395…
10 region_cat   categorical missing  region_cat   Unknown   115    124    239   
# ℹ 11 more rows
…
